version="1.8.2"
tags={
	"Alternative History"
}
name="anbennar yeet"
replace_path="common/culture/cultures"
replace_path="common/religion/religions"
replace_path="history/characters"
replace_path="history/provinces"
replace_path="history/titles"
replace_path="history/cultures"
supported_version="1.8.2"