#k_rubyhold
##d_rubyhold
###c_rubyhold
62 = {		#Rubyhold

    # Misc
    culture = ruby_dwarvish
    religion = ancestor_worship
	holding = castle_holding

    # History

}
1232 = {

    # Misc
    holding = none

    # History

}

###c_rivergate
65 = {		#Rivergate

    # Misc
    culture = ruby_dwarvish
    religion = ancestor_worship
	holding = castle_holding

    # History

}
1231 = {

    # Misc
    holding = none

    # History

}

###c_redgate
64 = {		#Redgate

    # Misc
    culture = ruby_dwarvish
    religion = ancestor_worship
	holding = castle_holding

    # History

}
1230 = {

    # Misc
    holding = none

    # History

}
